<?xml version="1.0" encoding="UTF-8" standalone="no"?>
<!-- Generator: Adobe Illustrator 19.0.0, SVG Export Plug-In . SVG Version: 6.00 Build 0)  -->

<svg
   version="1.1"
   id="Layer_1"
   x="0px"
   y="0px"
   viewBox="0 0 512 512"
   style="enable-background:new 0 0 512 512;"
   xml:space="preserve"
   sodipodi:docname="magnifier.svg"
   inkscape:version="1.1.1 (3bf5ae0d25, 2021-09-20)"
   xmlns:inkscape="http://www.inkscape.org/namespaces/inkscape"
   xmlns:sodipodi="http://sodipodi.sourceforge.net/DTD/sodipodi-0.dtd"
   xmlns="http://www.w3.org/2000/svg"
   xmlns:svg="http://www.w3.org/2000/svg"><defs
   id="defs41">




	












	

		
	
	

		
	















	
















		
	</defs><sodipodi:namedview
   id="namedview39"
   pagecolor="#ffffff"
   bordercolor="#666666"
   borderopacity="1.0"
   inkscape:pageshadow="2"
   inkscape:pageopacity="0.0"
   inkscape:pagecheckerboard="0"
   showgrid="false"
   inkscape:zoom="1"
   inkscape:cx="217.5"
   inkscape:cy="250"
   inkscape:window-width="1920"
   inkscape:window-height="1048"
   inkscape:window-x="1366"
   inkscape:window-y="0"
   inkscape:window-maximized="1"
   inkscape:current-layer="layer3" />

<g
   id="g8">
</g>
<g
   id="g10">
</g>
<g
   id="g12">
</g>
<g
   id="g14">
</g>
<g
   id="g16">
</g>
<g
   id="g18">
</g>
<g
   id="g20">
</g>
<g
   id="g22">
</g>
<g
   id="g24">
</g>
<g
   id="g26">
</g>
<g
   id="g28">
</g>
<g
   id="g30">
</g>
<g
   id="g32">
</g>
<g
   id="g34">
</g>
<g
   id="g36">
</g>
<g
   inkscape:groupmode="layer"
   id="layer3"
   inkscape:label="Layer 1"><g
     id="g8-7"
     transform="matrix(0.6,0,0,0.6,72.399284,72.399441)">
</g><g
     id="g10-9"
     transform="matrix(0.6,0,0,0.6,72.399284,72.399441)">
</g><g
     id="g12-2"
     transform="matrix(0.6,0,0,0.6,72.399284,72.399441)">
</g><g
     id="g14-0"
     transform="matrix(0.6,0,0,0.6,72.399284,72.399441)">
</g><g
     id="g16-2"
     transform="matrix(0.6,0,0,0.6,72.399284,72.399441)">
</g><g
     id="g18-3"
     transform="matrix(0.6,0,0,0.6,72.399284,72.399441)">
</g><g
     id="g20-7"
     transform="matrix(0.6,0,0,0.6,72.399284,72.399441)">
</g><g
     id="g22-5"
     transform="matrix(0.6,0,0,0.6,72.399284,72.399441)">
</g><g
     id="g24-9"
     transform="matrix(0.6,0,0,0.6,72.399284,72.399441)">
</g><g
     id="g26-2"
     transform="matrix(0.6,0,0,0.6,72.399284,72.399441)">
</g><g
     id="g28-2"
     transform="matrix(0.6,0,0,0.6,72.399284,72.399441)">
</g><g
     id="g30-8"
     transform="matrix(0.6,0,0,0.6,72.399284,72.399441)">
</g><g
     id="g32-9"
     transform="matrix(0.6,0,0,0.6,72.399284,72.399441)">
</g><g
     id="g34-7"
     transform="matrix(0.6,0,0,0.6,72.399284,72.399441)">
</g><g
     id="g36-3"
     transform="matrix(0.6,0,0,0.6,72.399284,72.399441)">
</g><path
     id="path2-5"
     style="fill:#e6e6e6;stroke-width:0.6"
     d="m 282.76367,175.02539 -33.3164,0.002 c -0.3075,0 -0.6075,0.0277 -0.91016,0.0469 l -37.44336,-0.002 c -19.82439,-1e-5 -35.95484,16.1325 -35.95703,35.95898 l 0.002,36.12695 c -0.11509,0.73011 -0.1914,1.47193 -0.1914,2.23438 l -0.002,51.60547 c 0,19.82438 16.13252,35.95291 35.95899,35.95507 l 37.3164,-0.002 c 0.4916,0.0512 0.98901,0.0801 1.49414,0.0801 h 51.60547 c 19.82438,-10e-6 35.95288,-16.13056 35.95508,-35.95703 l -0.002,-51.60352 c 0,-0.93215 -0.0951,-1.84032 -0.26563,-2.72265 v -35.76563 c 0,-16.40192 -11.0545,-30.24431 -26.0957,-34.54687 -8.33916,-0.6179 -16.72779,-0.21359 -25.06445,-1.00977 -1.03201,-0.0986 -2.05745,-0.25606 -3.08399,-0.40039 z m -19.14453,28.56055 h 37.42969 c 4.0797,-4.8e-4 7.40093,3.31925 7.40039,7.39844 v 51.60156 c 1.1e-4,0.92941 0.0961,1.83688 0.26562,2.71679 l 0.002,35.76954 c 4.8e-4,4.07971 -3.31928,7.40092 -7.39844,7.40039 h -37.31445 c -0.49285,-0.0514 -0.99159,-0.0782 -1.49805,-0.0781 H 210.9043 c -4.07969,4.9e-4 -7.40092,-3.31929 -7.40039,-7.39844 l 0.002,-36.12695 c 0.11518,-0.73067 0.19154,-1.47327 0.19141,-2.23633 l -0.002,-51.60156 c -4.8e-4,-4.0797 3.31929,-7.40092 7.39844,-7.40039 l 51.60352,0.002 c 0.31102,-4e-5 0.61579,-0.0273 0.92187,-0.0469 z" /></g></svg>
