<?xml version="1.0" encoding="UTF-8" standalone="no"?>
<!-- Generator: Adobe Illustrator 19.0.0, SVG Export Plug-In . SVG Version: 6.00 Build 0)  -->

<svg
   version="1.1"
   id="Layer_1"
   x="0px"
   y="0px"
   viewBox="0 0 512 512"
   style="enable-background:new 0 0 512 512;"
   xml:space="preserve"
   sodipodi:docname="maximized_hover.svg"
   inkscape:version="1.1.1 (3bf5ae0d25, 2021-09-20)"
   xmlns:inkscape="http://www.inkscape.org/namespaces/inkscape"
   xmlns:sodipodi="http://sodipodi.sourceforge.net/DTD/sodipodi-0.dtd"
   xmlns="http://www.w3.org/2000/svg"
   xmlns:svg="http://www.w3.org/2000/svg"><defs
   id="defs41">




	












	

		
	
	

		
	




























	



		
	</defs><sodipodi:namedview
   id="namedview39"
   pagecolor="#ffffff"
   bordercolor="#666666"
   borderopacity="1.0"
   inkscape:pageshadow="2"
   inkscape:pageopacity="0.0"
   inkscape:pagecheckerboard="0"
   showgrid="false"
   inkscape:zoom="0.35355339"
   inkscape:cx="301.22749"
   inkscape:cy="313.95541"
   inkscape:window-width="1920"
   inkscape:window-height="1048"
   inkscape:window-x="1366"
   inkscape:window-y="0"
   inkscape:window-maximized="1"
   inkscape:current-layer="layer3" />

<g
   id="g8">
</g>
<g
   id="g10">
</g>
<g
   id="g12">
</g>
<g
   id="g14">
</g>
<g
   id="g16">
</g>
<g
   id="g18">
</g>
<g
   id="g20">
</g>
<g
   id="g22">
</g>
<g
   id="g24">
</g>
<g
   id="g26">
</g>
<g
   id="g28">
</g>
<g
   id="g30">
</g>
<g
   id="g32">
</g>
<g
   id="g34">
</g>
<g
   id="g36">
</g>
<g
   inkscape:groupmode="layer"
   id="layer3"
   inkscape:label="Layer 1"><g
     id="g8-7"
     transform="matrix(0.6,0,0,0.6,72.399284,72.399441)">
</g><g
     id="g10-9"
     transform="matrix(0.6,0,0,0.6,72.399284,72.399441)">
</g><g
     id="g12-2"
     transform="matrix(0.6,0,0,0.6,72.399284,72.399441)">
</g><g
     id="g14-0"
     transform="matrix(0.6,0,0,0.6,72.399284,72.399441)">
</g><g
     id="g16-2"
     transform="matrix(0.6,0,0,0.6,72.399284,72.399441)">
</g><g
     id="g18-3"
     transform="matrix(0.6,0,0,0.6,72.399284,72.399441)">
</g><g
     id="g20-7"
     transform="matrix(0.6,0,0,0.6,72.399284,72.399441)">
</g><g
     id="g22-5"
     transform="matrix(0.6,0,0,0.6,72.399284,72.399441)">
</g><g
     id="g24-9"
     transform="matrix(0.6,0,0,0.6,72.399284,72.399441)">
</g><g
     id="g26-2"
     transform="matrix(0.6,0,0,0.6,72.399284,72.399441)">
</g><g
     id="g28-2"
     transform="matrix(0.6,0,0,0.6,72.399284,72.399441)">
</g><g
     id="g30-8"
     transform="matrix(0.6,0,0,0.6,72.399284,72.399441)">
</g><g
     id="g32-9"
     transform="matrix(0.6,0,0,0.6,72.399284,72.399441)">
</g><g
     id="g34-7"
     transform="matrix(0.6,0,0,0.6,72.399284,72.399441)">
</g><g
     id="g36-3"
     transform="matrix(0.6,0,0,0.6,72.399284,72.399441)">
</g><path
     id="path2-5"
     style="fill:#ececec;stroke-width:0.48"
     d="m 256,133.12031 c -67.4928,0 -122.87969,55.38689 -122.87969,122.87969 0,67.4928 55.38689,122.87969 122.87969,122.87969 67.4928,0 122.87969,-55.38689 122.87969,-122.87969 0,-67.4928 -55.38689,-122.87969 -122.87969,-122.87969 z m 0,94.32813 c 7.36616,-1e-4 14.73137,2.8027 20.33906,8.40938 L 305.53125,265.05 c 4.46112,4.46118 4.46064,11.69386 0,16.15469 -2.23123,2.23085 -5.15521,3.34687 -8.07812,3.34687 -2.92411,0 -5.84728,-1.11654 -8.07813,-3.34687 l -29.19062,-29.19063 c -2.30722,-2.30797 -6.06276,-2.30808 -8.37032,0 l -29.19062,29.19063 c -4.46031,4.46186 -11.6935,4.46273 -16.15469,0.002 -4.46117,-4.46083 -4.46117,-11.69351 0,-16.15469 l 29.19063,-29.19218 c 5.60839,-5.60708 12.97446,-8.41084 20.34062,-8.41094 z" /></g></svg>
