<?xml version="1.0" encoding="UTF-8" standalone="no"?>
<!-- Created with Inkscape (http://www.inkscape.org/) -->

<svg
   width="180mm"
   height="180mm"
   viewBox="0 0 180 180"
   version="1.1"
   id="svg5"
   inkscape:version="1.1.1 (3bf5ae0d25, 2021-09-20)"
   sodipodi:docname="cpu.svg"
   xmlns:inkscape="http://www.inkscape.org/namespaces/inkscape"
   xmlns:sodipodi="http://sodipodi.sourceforge.net/DTD/sodipodi-0.dtd"
   xmlns="http://www.w3.org/2000/svg"
   xmlns:svg="http://www.w3.org/2000/svg">
  <sodipodi:namedview
     id="namedview7"
     pagecolor="#ffffff"
     bordercolor="#666666"
     borderopacity="1.0"
     inkscape:pageshadow="2"
     inkscape:pageopacity="0.0"
     inkscape:pagecheckerboard="0"
     inkscape:document-units="mm"
     showgrid="false"
     inkscape:zoom="0.6094215"
     inkscape:cx="360.17764"
     inkscape:cy="515.24273"
     inkscape:window-width="1920"
     inkscape:window-height="1048"
     inkscape:window-x="1366"
     inkscape:window-y="0"
     inkscape:window-maximized="1"
     inkscape:current-layer="g13796" />
  <defs
     id="defs2" />
  <g
     inkscape:label="Layer 1"
     inkscape:groupmode="layer"
     id="layer1">
    <g
       id="g13796"
       transform="translate(82.985762,-23.174724)">
      <g
         id="g29912"
         transform="matrix(0.67417232,0,0,0.67417232,54.087665,62.777989)"
         style="fill:#cccccc">
        <path
           style="fill:#cccccc;fill-opacity:1;stroke-width:1.96415"
           d="m -88.310137,125.03601 c -10.569007,-3.76741 -20.798283,-12.49299 -27.748583,-23.66957 -5.41864,-8.713581 -5.89246,-10.909349 -5.89246,-27.306928 0,-15.295817 0.67986,-19.018439 4.78103,-26.179071 2.86413,-5.000762 6.21102,-8.347655 8.34765,-8.347655 4.57685,0 4.50547,3.220374 -0.27941,12.605637 -13.12137,25.736816 -1.23018,56.116137 25.431486,64.971727 24.913804,8.27503 50.408106,-6.35291 57.327286,-32.892858 5.915276,-22.689266 -9.537675,-46.172343 -35.210302,-53.507333 -4.065628,-1.161601 -4.419347,-0.623238 -4.419347,6.726313 0,6.67954 -0.643871,7.988977 -3.928308,7.988977 -3.501774,0 -3.928308,-1.309437 -3.928308,-12.059716 V 21.305817 l 11.076155,1.143161 c 19.67415,2.030551 38.956263,18.344284 44.08575,37.29898 11.3745024,42.031552 -28.918004,79.804662 -69.642639,65.288052 z m 10.186211,-41.800795 c -1.616564,-1.890498 -6.172898,-8.856106 -10.125189,-15.479127 -12.013655,-20.13179 -8.915242,-23.230202 11.216548,-11.216548 16.41745,9.797118 18.916397,12.220981 18.916397,18.34802 0,10.205861 -13.575526,15.869854 -20.007756,8.347655 z m 11.662613,-7.864155 c 0.406489,-1.219467 -2.015914,-3.641872 -5.38312,-5.38312 l -6.12219,-3.165908 3.165908,6.12219 c 3.058927,5.915313 6.812472,7.007627 8.339402,2.426838 z"
           id="path29926" />
        <path
           style="fill:#cccccc;fill-opacity:1;stroke-width:1.96415"
           d="m -89.437414,124.52614 c -4.983128,-1.75935 -12.663576,-7.01355 -17.885546,-12.23553 -11.53469,-11.53468 -16.37074,-24.838896 -15.26753,-42.001677 0.9458,-14.713818 8.02989,-30.756147 13.58153,-30.756147 4.92386,0 4.74329,3.989661 -0.58966,13.028335 -3.35798,5.69135 -4.36012,10.539073 -4.41935,21.377978 -0.0669,12.248051 0.6738,15.23167 5.86779,23.63536 3.68622,5.964161 9.596889,11.875961 15.559208,15.562181 8.181437,5.0582 11.564054,5.94439 22.689877,5.94439 11.125823,0 14.50844,-0.88619 22.689877,-5.94439 5.959536,-3.6845 11.874706,-9.59967 15.559204,-15.559203 5.058195,-8.181437 5.944386,-11.564054 5.944386,-22.689877 0,-11.125823 -0.886191,-14.50844 -5.944386,-22.689877 -6.054032,-9.792168 -18.527597,-18.997406 -28.919349,-21.341893 -5.198633,-1.172865 -5.401424,-0.922243 -5.401424,6.675421 0,6.584601 -0.651614,7.894038 -3.928308,7.894038 -3.49183,0 -3.928308,-1.309437 -3.928308,-11.784925 V 21.855399 h 6.524647 c 11.755886,0 25.250615,6.054197 34.81612,15.619702 33.6473366,33.647337 9.335626,91.030319 -38.25339,90.289559 -5.479053,-0.0853 -13.891979,-1.54262 -18.695388,-3.23852 z M -78.15626,83.235215 c -4.820625,-5.576161 -17.278838,-27.956782 -17.278838,-31.040659 0,-4.508101 4.766136,-3.370168 18.063194,4.31265 16.538957,9.555934 19.255734,12.149205 19.255734,18.380354 0,10.21344 -13.548264,15.85694 -20.04009,8.347655 z m 11.694947,-7.864155 c 0.406489,-1.219467 -2.015914,-3.641872 -5.38312,-5.38312 l -6.12219,-3.165908 3.165908,6.12219 c 3.058927,5.915313 6.812472,7.007627 8.339402,2.426838 z"
           id="path29924" />
        <path
           style="fill:#cccccc;fill-opacity:1;stroke-width:1.96415"
           d="M -86.688319,125.41685 C -115.99199,113.628 -129.05288,86.386791 -120.0066,55.924646 c 3.27416,-11.025274 9.63127,-18.368675 12.99213,-15.007817 1.45974,1.459742 0.73373,4.626813 -2.44327,10.658229 -6.17693,11.726682 -6.3437,32.643689 -0.35029,43.93612 8.43758,15.897592 21.284323,23.440452 39.906935,23.431012 26.725557,-0.0135 44.061101,-17.34653 44.061101,-44.05463 0,-22.519805 -12.724478,-38.666884 -34.612353,-43.922304 -4.954052,-1.1895 -5.320328,-0.810027 -5.892462,6.104787 -0.411495,4.973321 -1.568996,7.373128 -3.556286,7.373128 -2.261753,0 -2.946231,-2.509752 -2.946231,-10.802847 V 22.837476 l 8.838693,0.125628 c 16.166477,0.229798 33.965241,12.602955 42.294449,29.401809 5.365654,10.82178 5.365654,34.223494 0,45.045274 -4.968336,10.020443 -15.773548,20.785773 -25.664274,25.569553 -9.36446,4.52924 -30.805216,5.85851 -39.309861,2.4371 z M -82.36345,76.360676 C -95.512838,55.567561 -96.444921,53.506026 -93.863775,50.92488 c 2.581146,-2.581146 4.642681,-1.649063 25.435796,11.500325 8.512363,5.383145 10.311809,7.500487 10.311809,12.133538 0,6.868767 -5.392743,12.113742 -12.45502,12.113742 -4.22135,0 -6.569913,-2.053714 -11.79226,-10.311809 z m 15.849403,-0.831411 c 0.742509,-2.227532 -8.993337,-9.439214 -10.588947,-7.843604 -0.53273,0.532732 0.550869,3.287605 2.407998,6.121942 3.313561,5.057135 6.822943,5.795677 8.180949,1.721662 z"
           id="path29922" />
        <path
           style="fill:#cccccc;fill-opacity:1;stroke-width:1.96415"
           d="m -84.897981,125.78065 c -11.602981,-3.36281 -24.643999,-14.03238 -30.995479,-25.35909 -5.37573,-9.586644 -6.05389,-12.571864 -6.02372,-26.516077 0.0268,-12.405819 0.95114,-17.442246 4.39128,-23.927622 4.93169,-9.297274 7.82312,-11.74934 10.59089,-8.981566 1.23308,1.23308 0.35339,4.88734 -2.48954,10.341631 -12.49705,23.976117 -3.09721,52.955864 20.783726,64.076274 12.248758,5.70377 24.644237,5.89286 36.417116,0.55555 11.878703,-5.38529 17.309648,-10.71969 22.82853,-22.422726 5.730196,-12.151129 5.926598,-24.535272 0.576271,-36.336851 -5.38529,-11.878703 -10.719693,-17.309648 -22.422724,-22.82853 -13.073653,-6.165238 -14.389682,-5.930331 -15.103628,2.695951 -0.411072,4.966809 -1.569112,7.365577 -3.555836,7.365577 -2.261753,0 -2.946231,-2.509752 -2.946231,-10.802847 V 22.837476 l 9.364266,0.320967 c 19.276163,0.660702 39.216622,17.850004 44.839536,38.653085 10.3618852,38.335852 -27.746389,75.129642 -66.254457,63.969122 z m 7.523796,-42.652947 c -1.949629,-1.949629 -6.902055,-9.548148 -11.005391,-16.885597 -9.826584,-17.571576 -7.738549,-19.659611 9.833027,-9.833027 21.011613,11.750363 24.892856,17.944312 16.50207,26.335097 -4.878717,4.878718 -10.689146,5.024087 -15.329706,0.383527 z m 10.419321,-7.992227 c 0,-1.304028 -3.093543,-4.316439 -6.874539,-6.69425 l -6.87454,-4.323292 3.088138,4.893775 c 1.698475,2.691576 3.768178,6.045267 4.599342,7.452646 1.783239,3.019498 6.061599,2.081556 6.061599,-1.328879 z"
           id="path29920" />
        <path
           style="fill:#cccccc;fill-opacity:1;stroke-width:1.96415"
           d="m -82.668097,126.19795 c -29.393113,-7.7286 -46.172323,-37.841765 -37.571323,-67.42817 3.80242,-13.079862 9.70271,-21.27281 12.99385,-18.042835 1.64285,1.612319 1.04278,4.411608 -2.31577,10.802847 -3.59021,6.832088 -4.53322,11.758254 -4.53322,23.681001 0,13.585724 0.5802,15.879781 5.94731,23.514996 17.643929,25.100121 48.792364,28.655551 69.513328,7.934591 20.874615,-20.874615 17.771906,-52.673009 -6.7701,-69.383977 -4.290969,-2.921777 -10.617541,-5.87679 -14.059045,-6.566695 -6.088802,-1.220598 -6.273903,-1.052592 -6.87454,6.239546 -0.418221,5.077487 -1.567275,7.493917 -3.563488,7.493917 -2.261753,0 -2.946231,-2.509752 -2.946231,-10.802847 V 22.837476 l 9.016115,0.291125 c 16.071406,0.518936 32.784087,12.150861 41.533551,28.9071 3.245564,6.215633 4.240318,11.576546 4.240318,22.851859 0,11.275313 -0.994754,16.636226 -4.240318,22.851859 -5.34725,10.240601 -14.444191,19.395691 -24.236367,24.391291 -8.495658,4.33416 -27.13832,6.43257 -36.13407,4.06724 z m 6.514206,-41.980658 c -1.691418,-1.350356 -6.850703,-8.910949 -11.46508,-16.801317 -11.430379,-19.545414 -9.06933,-21.47347 11.516731,-9.404692 19.094389,11.19427 22.175518,16.615137 14.057761,24.732893 -4.492101,4.492101 -9.652994,5.030932 -14.109412,1.473116 z m 9.199027,-9.38332 c 0,-1.469851 -2.981154,-4.413547 -6.624787,-6.541543 l -6.624788,-3.869085 2.466053,4.74107 c 3.76812,7.244334 6.250445,9.853043 8.62312,9.062153 1.188221,-0.396074 2.160402,-1.922742 2.160402,-3.392595 z"
           id="path29918" />
        <path
           style="fill:#cccccc;fill-opacity:1;stroke-width:1.96415"
           d="m -87.536137,124.07722 c -19.821933,-6.84204 -35.397123,-28.91825 -35.397123,-50.171737 0,-15.447047 10.79259,-37.985519 15.82287,-33.043357 1.82301,1.791074 1.30169,4.001903 -2.31577,9.82077 -3.92019,6.305821 -4.6684,10.078118 -4.6684,23.536958 0,14.667118 0.50483,16.746527 5.94731,24.497073 3.27103,4.658203 9.755218,11.145763 14.409316,14.416783 7.673465,5.39312 9.894706,5.94732 23.836839,5.94732 13.942133,0 16.163374,-0.5542 23.836839,-5.94732 4.654098,-3.27102 11.138289,-9.75521 14.409313,-14.409311 5.393113,-7.673465 5.947315,-9.894706 5.947315,-23.836839 0,-13.942133 -0.554202,-16.163374 -5.947315,-23.836839 -6.998672,-9.957894 -19.017352,-18.844782 -27.802709,-20.557956 -6.086052,-1.186799 -6.268382,-1.017968 -6.87454,6.365637 -0.423269,5.155838 -1.566167,7.584769 -3.568903,7.584769 -2.260861,0 -2.946231,-2.506763 -2.946231,-10.775948 0,-12.891802 1.541712,-13.63996 18.158811,-8.812067 20.599887,5.985042 37.819581,28.765378 37.819581,50.032404 0,20.89835 -17.191526,43.95692 -37.184386,49.8745 -13.644951,4.0387 -20.185928,3.90492 -33.482817,-0.68484 z m 11.382246,-39.859928 c -1.691418,-1.350356 -6.850703,-8.910949 -11.46508,-16.801317 -11.430379,-19.545414 -9.06933,-21.47347 11.516731,-9.404692 19.094389,11.19427 22.175518,16.615137 14.057761,24.732893 -4.492101,4.492101 -9.652994,5.030932 -14.109412,1.473116 z m 9.199027,-9.38332 c 0,-1.469851 -2.981154,-4.413547 -6.624787,-6.541543 l -6.624788,-3.869085 2.466053,4.74107 c 3.76812,7.244334 6.250445,9.853043 8.62312,9.062153 1.188221,-0.396074 2.160402,-1.922742 2.160402,-3.392595 z"
           id="path29916" />
        <path
           style="fill:#cccccc;fill-opacity:1;stroke-width:1.96415"
           d="m -82.240889,125.86906 c -11.294203,-2.8014 -17.536646,-6.6313 -26.294291,-16.13222 -9.73866,-10.5652 -13.28127,-20.255348 -13.1986,-36.102312 0.0938,-17.975294 9.10262,-38.33439 14.55168,-32.885327 1.13801,1.138013 -0.0134,5.487546 -3.02948,11.445314 -9.30609,18.38188 -5.47945,41.627296 9.13521,55.493085 28.867205,27.38799 76.264546,7.00323 76.264546,-32.80004 0,-18.400453 -11.054216,-35.128698 -27.839836,-42.129768 -11.109806,-4.633758 -13.001967,-4.036855 -13.693599,4.319802 -0.411072,4.966809 -1.569112,7.365577 -3.555836,7.365577 -2.261753,0 -2.946231,-2.509752 -2.946231,-10.802847 V 22.837476 l 7.802541,0.482925 c 4.291398,0.265611 10.871194,1.495672 14.621768,2.733474 10.006322,3.302383 24.898342,18.130602 29.007131,28.882857 4.105828,10.744506 4.434184,27.60167 0.748861,38.445034 -3.402433,10.011014 -16.703821,24.397624 -26.646298,28.820284 -9.960923,4.43087 -25.338837,6.04538 -34.927566,3.66701 z m 6.179519,-41.651768 c -5.707985,-4.698365 -19.884619,-31.210199 -17.802405,-33.292412 2.082213,-2.082214 28.594047,12.09442 33.292412,17.802405 3.562964,4.328601 3.016617,9.527159 -1.473116,14.016891 -4.489732,4.489733 -9.68829,5.03608 -14.016891,1.473116 z m 9.735145,-8.73235 c -0.352813,-1.83201 -3.619743,-5.070329 -7.259845,-7.196262 l -6.618369,-3.865336 2.466053,4.74107 c 3.752817,7.214911 6.076368,9.651454 9.203889,9.651454 1.622126,0 2.573413,-1.434905 2.208272,-3.330926 z"
           id="path29914" />
      </g>
    </g>
  </g>
</svg>
